…
```r
setwd("D:/Studium/DataScience/Course Material/DataScience/05 Reproducible Research")
temp <- tempfile()
download.file("https://d396qusza40orc.cloudfront.net/repdata%2Fdata%2Factivity.zip", temp, mode="wb")
unzip(temp)
unlink(temp)
(act <- as_tibble(read.csv("activity.csv", na.strings = "NA")))
```

```
## # A tibble: 17,568 x 3
##    steps       date interval
##    <int>     <fctr>    <int>
##  1    NA 2012-10-01        0
##  2    NA 2012-10-01        5
##  3    NA 2012-10-01       10
##  4    NA 2012-10-01       15
##  5    NA 2012-10-01       20
##  6    NA 2012-10-01       25
##  7    NA 2012-10-01       30
##  8    NA 2012-10-01       35
##  9    NA 2012-10-01       40
## 10    NA 2012-10-01       45
## # ... with 17,558 more rows
```
…
```r
(act_time <- act %>%
  mutate(datetime = as.POSIXct(paste(date, paste(interval%/%100, interval%%100, sep = ":"))),
         act_day_time = as.POSIXct(paste(Sys.Date(), paste(interval%/%100, interval%%100, sep = ":"))),
         time_str = strftime(act_day_time, format = "%H:%M:%S")
  )
)
```

```
## # A tibble: 17,568 x 6
##    steps       date interval            datetime        act_day_time
##    <int>     <fctr>    <int>              <dttm>              <dttm>
##  1    NA 2012-10-01        0 2012-10-01 00:00:00 2017-11-29 00:00:00
##  2    NA 2012-10-01        5 2012-10-01 00:05:00 2017-11-29 00:05:00
##  3    NA 2012-10-01       10 2012-10-01 00:10:00 2017-11-29 00:10:00
##  4    NA 2012-10-01       15 2012-10-01 00:15:00 2017-11-29 00:15:00
##  5    NA 2012-10-01       20 2012-10-01 00:20:00 2017-11-29 00:20:00
##  6    NA 2012-10-01       25 2012-10-01 00:25:00 2017-11-29 00:25:00
##  7    NA 2012-10-01       30 2012-10-01 00:30:00 2017-11-29 00:30:00
##  8    NA 2012-10-01       35 2012-10-01 00:35:00 2017-11-29 00:35:00
##  9    NA 2012-10-01       40 2012-10-01 00:40:00 2017-11-29 00:40:00
## 10    NA 2012-10-01       45 2012-10-01 00:45:00 2017-11-29 00:45:00
## # ... with 17,558 more rows, and 1 more variables: time_str <chr>
```

### 2. Histogram of the total number of steps taken each day
I use the pipe notation and ggplot2 throughout this analysis. To get the total number of steps taken each day, I first have to group the data by "date" and then summarize it. I save this data set for further analysis. For the histogram I specify a binwidth of 500 steps.

```r
(steps_per_day <- act_time %>%
  group_by(date) %>%
  summarize(steps_per_day = sum(steps, na.rm = TRUE)))
```

```
## # A tibble: 61 x 2
##          date steps_per_day
##        <fctr>         <int>
##  1 2012-10-01             0
##  2 2012-10-02           126
##  3 2012-10-03         11352
##  4 2012-10-04         12116
##  5 2012-10-05         13294
##  6 2012-10-06         15420
##  7 2012-10-07         11015
##  8 2012-10-08             0
##  9 2012-10-09         12811
## 10 2012-10-10          9900
## # ... with 51 more rows
```
…
### 4. Time series plot of the average number of steps taken
The time series plot should display the average number of steps taken at each interval of a day. For better readability, I converted the interval to times. Using the time string for the x-axis doesn't seem to work. I need to use a number format, so I display my "act_day_time", but define a format to only show the hours and minutes.

To get the right y-values, I first need to group the data by the x-values and then calculate the mean across all days. I safe the resulting data set for further analysis.

```r
(steps_per_interval <- act_time %>%
  group_by(act_day_time, time_str, interval) %>%
  summarize(steps_per_interval_mean = mean(steps, na.rm = TRUE)))
```

```
## # A tibble: 288 x 4
## # Groups:   act_day_time, time_str [?]
##           act_day_time time_str interval steps_per_interval_mean
##                 <dttm>    <chr>    <int>                   <dbl>
##  1 2017-11-29 00:00:00 00:00:00        0               1.7169811
##  2 2017-11-29 00:05:00 00:05:00        5               0.3396226
##  3 2017-11-29 00:10:00 00:10:00       10               0.1320755
##  4 2017-11-29 00:15:00 00:15:00       15               0.1509434
##  5 2017-11-29 00:20:00 00:20:00       20               0.0754717
##  6 2017-11-29 00:25:00 00:25:00       25               2.0943396
##  7 2017-11-29 00:30:00 00:30:00       30               0.5283019
##  8 2017-11-29 00:35:00 00:35:00       35               0.8679245
##  9 2017-11-29 00:40:00 00:40:00       40               0.0000000
## 10 2017-11-29 00:45:00 00:45:00       45               1.4716981
## # ... with 278 more rows
```
…
### 7. Histogram of the total number of steps taken each day after missing values are imputed
I repeat the work of questions 2 and 3 with the imputated data set. The results differ considerably and point out that missing values always have to be treated with care! Especially the first bin (0 - 500 steps) had many more observations in the original data. With all the missing values, the sum per day was smaller than it is with the imputated values. It looks like there's a pattern: There could be many days that have about 11000 steps missing compared to a standard day. With the imputated data the bin of 11000 - 11500 steps seems to have taken over most of the observations that were in the bin of 0 - 500 steps with the original data.

```r
(steps_per_day_clean <- act_clean %>%
  group_by(date) %>%
  summarize(steps_per_day = sum(steps, na.rm = TRUE)))
```

```
## # A tibble: 61 x 2
##          date steps_per_day
##        <fctr>         <dbl>
##  1 2012-10-01      10766.19
##  2 2012-10-02        126.00
##  3 2012-10-03      11352.00
##  4 2012-10-04      12116.00
##  5 2012-10-05      13294.00
##  6 2012-10-06      15420.00
##  7 2012-10-07      11015.00
##  8 2012-10-08      10766.19
##  9 2012-10-09      12811.00
## 10 2012-10-10       9900.00
## # ... with 51 more rows
```
…
